…
```r
## Find paths of all FCS files in the given directory(-ies)
fcs_files <- keystone::list_files("C:/Users/priscian/Downloads/cytometry/FlowRepository_FR-FCM-ZYDW_files",
  "\\.fcs$", recursive = FALSE, ignore.case = TRUE, full.names = TRUE)

## Check channel names & descriptions among FCS files
## Add argument 'clear_1_cache = TRUE' to clear cache & rerun
cbs <- get_channels_by_sample(x = fcs_files, SUFFIX = "_cbs", clear_1_cache = FALSE)
```

The function `get_channels_by_sample()` compiles channel names and descriptions from the experiment's FCS files into a tabular `data.frame`; you can check this table to insure that channels are labeled correctly among all the samples. For the [Kimball &al 2018](#kimball-et-al-2018) data we're working on here, this is how the `cbs` variable looks:

```r
> cbs %>% tibble::as_tibble()
# A tibble: 62 × 10
   name         desc_01  desc_02  desc_03  desc_04  desc_05  desc_06  desc_07  desc_08  desc_09
   <chr>        <chr>    <chr>    <chr>    <chr>    <chr>    <chr>    <chr>    <chr>    <chr>
 1 Time         <NA>     <NA>     <NA>     <NA>     <NA>     <NA>     <NA>     <NA>     <NA>
 2 Event_length <NA>     <NA>     <NA>     <NA>     <NA>     <NA>     <NA>     <NA>     <NA>
 3 Y89Di        89Y_CD45 89Y_CD45 89Y_CD45 89Y_CD45 89Y_CD45 89Y_CD45 89Y_CD45 89Y_CD45 89Y_CD45
 4 Pd102Di      102Pd    102Pd    102Pd    102Pd    102Pd    102Pd    102Pd    102Pd    102Pd
 5 Rh103Di      103Rh    103Rh    103Rh    103Rh    103Rh    103Rh    103Rh    103Rh    103Rh
 6 Pd104Di      104Pd    104Pd    104Pd    104Pd    104Pd    104Pd    104Pd    104Pd    104Pd
 7 Pd105Di      105Pd    105Pd    105Pd    105Pd    105Pd    105Pd    105Pd    105Pd    105Pd
 8 Pd106Di      106Pd    106Pd    106Pd    106Pd    106Pd    106Pd    106Pd    106Pd    106Pd
 9 Pd108Di      108Pd    108Pd    108Pd    108Pd    108Pd    108Pd    108Pd    108Pd    108Pd
10 Pd110Di      110Pd    110Pd    110Pd    110Pd    110Pd    110Pd    110Pd    110Pd    110Pd
# ℹ 52 more rows
# ℹ Use `print(n = ...)` to see more rows
```
…
